Lecture 1 Some R Base Plotting
…
movies2[temp$ix,]

## # A tibble: 840 x 24
##    title    year length budget rating  votes    r1    r2    r3    r4    r5    r6
##    <chr>   <int>  <int>  <int>  <dbl>  <int> <dbl> <dbl> <dbl> <dbl> <dbl> <dbl>
##  1 Godfat~  1972    175  6  e6    9.1 122755   4.5   4.5   4.5   4.5   4.5   4.5
##  2 Shawsh~  1994    142  2.5e7    9.1 149494   4.5   4.5   4.5   4.5   4.5   4.5
##  3 Lord o~  2003    251  9.4e7    9   103631   4.5   4.5   4.5   4.5   4.5   4.5
##  4 Godfat~  1974    200  1.3e7    8.9  71363   4.5   4.5   4.5   4.5   4.5   4.5
##  5 Shichi~  1954    206  5  e5    8.9  32141   4.5   4.5   4.5   4.5   4.5   4.5
##  6 Buono,~  1966    180  1.2e6    8.8  30224   4.5   4.5   4.5   4.5   4.5   4.5
##  7 Casabl~  1942    102  9.5e5    8.8  66030   4.5   4.5   4.5   4.5   4.5   4.5
##  8 Lord o~  2001    208  9.3e7    8.8 157608   4.5   4.5   4.5   4.5   4.5   4.5
##  9 Lord o~  2002    223  9.4e7    8.8 114797   4.5   4.5   4.5   4.5   4.5   4.5
## 10 Pulp F~  1994    168  8  e6    8.8 132745   4.5   4.5   4.5   4.5   4.5   4.5
## # ... with 830 more rows, and 12 more variables: r7 <dbl>, r8 <dbl>, r9 <dbl>,
## #   r10 <dbl>, mpaa <chr>, Action <int>, Animation <int>, Comedy <int>,
## #   Drama <int>, Documentary <int>, Romance <int>, Short <int>

movies2[temp$ix,1]

## # A tibble: 840 x 1
##    title                                             
##    <chr>                                             
##  1 Godfather, The                                    
##  2 Shawshank Redemption, The                         
##  3 Lord of the Rings: The Return of the King, The    
##  4 Godfather: Part II, The                           
##  5 Shichinin no samurai                              
##  6 Buono, il brutto, il cattivo, Il                  
##  7 Casablanca                                        
##  8 Lord of the Rings: The Fellowship of the Ring, The
##  9 Lord of the Rings: The Two Towers, The            
## 10 Pulp Fiction                                      
## # ... with 830 more rows
…
